([('open_local_folder.exe',
   'C:\\MyVolume\\Development\\Projekte\\firefox-addons\\open-local-folder\\native-app-win\\build\\open_local_folder\\open_local_folder.exe',
   'EXECUTABLE'),
  ('open_local_folder.exe.manifest',
   'C:\\MyVolume\\Development\\Projekte\\firefox-addons\\open-local-folder\\native-app-win\\build\\open_local_folder\\open_local_folder.exe.manifest',
   'BINARY'),
  ('VCRUNTIME140.dll',
   'c:\\program files\\python36\\VCRUNTIME140.dll',
   'BINARY'),
  ('python36.dll', 'c:\\program files\\python36\\python36.dll', 'BINARY'),
  ('_ssl', 'c:\\program files\\python36\\DLLs\\_ssl.pyd', 'EXTENSION'),
  ('unicodedata',
   'c:\\program files\\python36\\DLLs\\unicodedata.pyd',
   'EXTENSION'),
  ('pyexpat', 'c:\\program files\\python36\\DLLs\\pyexpat.pyd', 'EXTENSION'),
  ('_hashlib', 'c:\\program files\\python36\\DLLs\\_hashlib.pyd', 'EXTENSION'),
  ('select', 'c:\\program files\\python36\\DLLs\\select.pyd', 'EXTENSION'),
  ('_bz2', 'c:\\program files\\python36\\DLLs\\_bz2.pyd', 'EXTENSION'),
  ('_lzma', 'c:\\program files\\python36\\DLLs\\_lzma.pyd', 'EXTENSION'),
  ('_socket', 'c:\\program files\\python36\\DLLs\\_socket.pyd', 'EXTENSION'),
  ('base_library.zip',
   'C:\\MyVolume\\Development\\Projekte\\firefox-addons\\open-local-folder\\native-app-win\\build\\open_local_folder\\base_library.zip',
   'DATA')],)
