{
  "name": "open_local_folder",
  "description": "Host app for Open Local Folder extension",
  "path": "C:\\Program Files\\open_local_folder\\open_local_folder.exe",
  "type": "stdio",
  "allowed_extensions": [ "open_local_folder@belaschk.de" ]
}
